{
  "response": {
    "status": "ok",
    "userTier": "developer",
    "total": 2201,
    "startIndex": 1,
    "pageSize": 10,
    "currentPage": 1,
    "pages": 221,
    "orderBy": "newest",
    "results": [
      {
        "id": "media/commentisfree/2018/may/11/abc-reels-as-coalition-uses-budget-cuts-to-declare-war-on-bolts-leftist-collective",
        "type": "article",
        "sectionId": "media",
        "sectionName": "Media",
        "webPublicationDate": "2018-05-10T23:54:29Z",
        "webTitle": "ABC's 'leftist collective' reels from Coalition's budget payback | The Weekly Beast",
        "webUrl": "https://www.theguardian.com/media/commentisfree/2018/may/11/abc-reels-as-coalition-uses-budget-cuts-to-declare-war-on-bolts-leftist-collective",
        "apiUrl": "https://content.guardianapis.com/media/commentisfree/2018/may/11/abc-reels-as-coalition-uses-budget-cuts-to-declare-war-on-bolts-leftist-collective",
        "isHosted": false,
        "pillarId": "pillar/news",
        "pillarName": "News"
      },
      {
        "id": "business/2018/may/11/seatbelt-on-vw-polo-and-seat-cars-potentially-lethal",
        "type": "article",
        "sectionId": "business",
        "sectionName": "Business",
        "webPublicationDate": "2018-05-10T23:33:06Z",
        "webTitle": "Concerns after potentially lethal fault found in VW Polo and Seat seatbelts",
        "webUrl": "https://www.theguardian.com/business/2018/may/11/seatbelt-on-vw-polo-and-seat-cars-potentially-lethal",
        "apiUrl": "https://content.guardianapis.com/business/2018/may/11/seatbelt-on-vw-polo-and-seat-cars-potentially-lethal",
        "isHosted": false,
        "pillarId": "pillar/news",
        "pillarName": "News"
      }
    ]
  }
}